{
    "Template": ["QML Only", "C++", "Python", "HTML", "Go", "Rust"],
    "Title": "App Title",
    "Description": "A short description of your app",
    "App Name": "appname",
    "Namespace": "yourname",
    "Maintainer Name": "Your FullName",
    "Maintainer Email": "email@domain.org",
    "License": ["GNU General Public License v3", "MIT license", "BSD license", "ISC license", "Apache Software License 2.0", "Not open source"],
    "Copyright Year": "2020",
    "Git Tag Versioning": "n",
    "Save as Default": "n"
}
